module ambassador

go 1.16

require (
	github.com/xxxxxx/go-user-service v0.0.0-20211001125844-1d4636af0abd // indirect
	github.com/bxcodec/faker/v3 v3.6.0 // indirect
	github.com/confluentinc/confluent-kafka-go v1.7.0 // indirect
	github.com/go-redis/redis/v8 v8.11.3 // indirect
	github.com/gofiber/fiber/v2 v2.19.0 // indirect
	go.opentelemetry.io/otel v0.16.0 // indirect
	gorm.io/driver/mysql v1.1.2 // indirect
	gorm.io/gorm v1.21.15 // indirect
)
